{
  "type": "FeatureCollection",
  "features": [
    {
      "type": "Feature",
      "geometry": {
        "type": "Polygon",
        "coordinates": [
          [
            [
              6.08455,
              45.90219
            ],
            [
              6.08718,
              45.90309
            ],
            [
              6.08783,
              45.90491
            ],
            [
              6.08666,
              45.90671
            ],
            [
              6.08656,
              45.90905
            ],
            [
              6.08545,
              45.91363
            ],
            [
              6.08433,
              45.91412
            ],
            [
              6.08375,
              45.91608
            ],
            [
              6.08508,
              45.91675
            ],
            [
              6.08412,
              45.91864
            ],
            [
              6.08642,
              45.92108
            ],
            [
              6.09012,
              45.92499
            ],
            [
              6.08911,
              45.92565
            ],
            [
              6.09597,
              45.93067
            ],
            [
              6.10737,
              45.92452
            ],
            [
              6.11201,
              45.92252
            ],
            [
              6.11451,
              45.92234
            ],
            [
              6.11615,
              45.92463
            ],
            [
              6.11817,
              45.92583
            ],
            [
              6.12101,
              45.93056
            ],
            [
              6.12117,
              45.93185
            ],
            [
              6.12315,
              45.93345
            ],
            [
              6.12366,
              45.93521
            ],
            [
              6.12101,
              45.93764
            ],
            [
              6.11957,
              45.93961
            ],
            [
              6.11653,
              45.94047
            ],
            [
              6.11161,
              45.94294
            ],
            [
              6.11196,
              45.94531
            ],
            [
              6.11052,
              45.94694
            ],
            [
              6.10872,
              45.94671
            ],
            [
              6.10684,
              45.94877
            ],
            [
              6.10481,
              45.95014
            ],
            [
              6.10356,
              45.95211
            ],
            [
              6.10113,
              45.95242
            ],
            [
              6.09987,
              45.95368
            ],
            [
              6.10001,
              45.95583
            ],
            [
              6.09639,
              45.95916
            ],
            [
              6.09287,
              45.95949
            ],
            [
              6.08947,
              45.95908
            ],
            [
              6.08722,
              45.96014
            ],
            [
              6.07952,
              45.96095
            ],
            [
              6.07783,
              45.96253
            ],
            [
              6.0783,
              45.96476
            ],
            [
              6.07512,
              45.96442
            ],
            [
              6.07542,
              45.96608
            ],
            [
              6.07741,
              45.9697
            ],
            [
              6.08012,
              45.97097
            ],
            [
              6.08065,
              45.97275
            ],
            [
              6.08377,
              45.9751
            ],
            [
              6.08829,
              45.97673
            ],
            [
              6.08951,
              45.97561
            ],
            [
              6.09178,
              45.97481
            ],
            [
              6.09442,
              45.97297
            ],
            [
              6.09988,
              45.97341
            ],
            [
              6.10305,
              45.97164
            ],
            [
              6.10407,
              45.97053
            ],
            [
              6.10372,
              45.96811
            ],
            [
              6.10459,
              45.96659
            ],
            [
              6.10561,
              45.96467
            ],
            [
              6.10693,
              45.96503
            ],
            [
              6.10943,
              45.96386
            ],
            [
              6.1115,
              45.96483
            ],
            [
              6.11423,
              45.96406
            ],
            [
              6.12012,
              45.96161
            ],
            [
              6.12354,
              45.95969
            ],
            [
              6.12569,
              45.96093
            ],
            [
              6.1284,
              45.95998
            ],
            [
              6.13018,
              45.95848
            ],
            [
              6.13833,
              45.95694
            ],
            [
              6.13792,
              45.9533
            ],
            [
              6.13712,
              45.9524
            ],
            [
              6.13553,
              45.95191
            ],
            [
              6.13249,
              45.94998
            ],
            [
              6.13206,
              45.94846
            ],
            [
              6.12964,
              45.94612
            ],
            [
              6.1279,
              45.94242
            ],
            [
              6.1296,
              45.94099
            ],
            [
              6.131,
              45.93642
            ],
            [
              6.13322,
              45.93559
            ],
            [
              6.13602,
              45.93567
            ],
            [
              6.1414,
              45.93505
            ],
            [
              6.14317,
              45.93453
            ],
            [
              6.14559,
              45.93702
            ],
            [
              6.14909,
              45.93708
            ],
            [
              6.15051,
              45.93987
            ],
            [
              6.15183,
              45.94036
            ],
            [
              6.1558,
              45.93893
            ],
            [
              6.1571,
              45.93897
            ],
            [
              6.16404,
              45.94135
            ],
            [
              6.16448,
              45.93832
            ],
            [
              6.16545,
              45.93747
            ],
            [
              6.16757,
              45.93735
            ],
            [
              6.16968,
              45.938
            ],
            [
              6.17264,
              45.93791
            ],
            [
              6.173,
              45.93645
            ],
            [
              6.17548,
              45.9361
            ],
            [
              6.17527,
              45.93394
            ],
            [
              6.17625,
              45.93035
            ],
            [
              6.1772,
              45.92923
            ],
            [
              6.17952,
              45.92816
            ],
            [
              6.1797,
              45.92617
            ],
            [
              6.18286,
              45.92431
            ],
            [
              6.18573,
              45.92479
            ],
            [
              6.18862,
              45.92457
            ],
            [
              6.19004,
              45.92371
            ],
            [
              6.19169,
              45.92127
            ],
            [
              6.19362,
              45.92034
            ],
            [
              6.1963,
              45.91998
            ],
            [
              6.19737,
              45.91868
            ],
            [
              6.19977,
              45.91801
            ],
            [
              6.19956,
              45.91595
            ],
            [
              6.20008,
              45.91129
            ],
            [
              6.19946,
              45.90987
            ],
            [
              6.2,
              45.90841
            ],
            [
              6.20297,
              45.90831
            ],
            [
              6.20434,
              45.90682
            ],
            [
              6.20097,
              45.90491
            ],
            [
              6.19811,
              45.90262
            ],
            [
              6.19736,
              45.90121
            ],
            [
              6.18325,
              45.9061
            ],
            [
              6.1778,
              45.90548
            ],
            [
              6.17194,
              45.9028
            ],
            [
              6.1691,
              45.90105
            ],
            [
              6.161,
              45.89986
            ],
            [
              6.14903,
              45.89722
            ],
            [
              6.1561,
              45.88286
            ],
            [
              6.14052,
              45.88346
            ],
            [
              6.14037,
              45.88202
            ],
            [
              6.13894,
              45.88185
            ],
            [
              6.13751,
              45.88
            ],
            [
              6.13595,
              45.87969
            ],
            [
              6.12661,
              45.87519
            ],
            [
              6.1264,
              45.87403
            ],
            [
              6.12465,
              45.87296
            ],
            [
              6.123,
              45.86861
            ],
            [
              6.1241,
              45.866
            ],
            [
              6.12262,
              45.86222
            ],
            [
              6.12255,
              45.8593
            ],
            [
              6.12003,
              45.8574
            ],
            [
              6.11797,
              45.85743
            ],
            [
              6.11669,
              45.85551
            ],
            [
              6.11549,
              45.85521
            ],
            [
              6.11445,
              45.85227
            ],
            [
              6.11209,
              45.8506
            ],
            [
              6.10718,
              45.84955
            ],
            [
              6.10774,
              45.84822
            ],
            [
              6.10688,
              45.84694
            ],
            [
              6.10784,
              45.84407
            ],
            [
              6.10617,
              45.84143
            ],
            [
              6.10491,
              45.84089
            ],
            [
              6.10466,
              45.83819
            ],
            [
              6.10294,
              45.83744
            ],
            [
              6.09899,
              45.84193
            ],
            [
              6.09764,
              45.84293
            ],
            [
              6.09502,
              45.84359
            ],
            [
              6.09656,
              45.84767
            ],
            [
              6.09401,
              45.84887
            ],
            [
              6.09355,
              45.85001
            ],
            [
              6.08924,
              45.85109
            ],
            [
              6.08958,
              45.85338
            ],
            [
              6.08795,
              45.85478
            ],
            [
              6.08523,
              45.85555
            ],
            [
              6.07981,
              45.85366
            ],
            [
              6.07501,
              45.85134
            ],
            [
              6.07279,
              45.84885
            ],
            [
              6.07339,
              45.84747
            ],
            [
              6.07131,
              45.84521
            ],
            [
              6.07186,
              45.84474
            ],
            [
              6.07045,
              45.84208
            ],
            [
              6.07191,
              45.84082
            ],
            [
              6.07223,
              45.83743
            ],
            [
              6.07331,
              45.83602
            ],
            [
              6.07166,
              45.8342
            ],
            [
              6.07269,
              45.83052
            ],
            [
              6.07124,
              45.8299
            ],
            [
              6.06854,
              45.83003
            ],
            [
              6.06532,
              45.8282
            ],
            [
              6.06206,
              45.82849
            ],
            [
              6.05975,
              45.82951
            ],
            [
              6.05468,
              45.83099
            ],
            [
              6.05119,
              45.83078
            ],
            [
              6.04874,
              45.83163
            ],
            [
              6.05111,
              45.83227
            ],
            [
              6.05417,
              45.83379
            ],
            [
              6.05551,
              45.83541
            ],
            [
              6.0571,
              45.83613
            ],
            [
              6.05826,
              45.83798
            ],
            [
              6.05558,
              45.84127
            ],
            [
              6.05254,
              45.84299
            ],
            [
              6.05258,
              45.84659
            ],
            [
              6.05345,
              45.84856
            ],
            [
              6.05635,
              45.8478
            ],
            [
              6.05878,
              45.84882
            ],
            [
              6.05819,
              45.85018
            ],
            [
              6.06338,
              45.85295
            ],
            [
              6.06405,
              45.85409
            ],
            [
              6.06355,
              45.85594
            ],
            [
              6.06404,
              45.85765
            ],
            [
              6.06168,
              45.85809
            ],
            [
              6.06039,
              45.85907
            ],
            [
              6.06158,
              45.86039
            ],
            [
              6.06205,
              45.86366
            ],
            [
              6.06063,
              45.86689
            ],
            [
              6.05901,
              45.86723
            ],
            [
              6.05972,
              45.86896
            ],
            [
              6.06323,
              45.86862
            ],
            [
              6.06435,
              45.87001
            ],
            [
              6.07075,
              45.87108
            ],
            [
              6.07044,
              45.87226
            ],
            [
              6.06818,
              45.87341
            ],
            [
              6.06854,
              45.87745
            ],
            [
              6.06581,
              45.87989
            ],
            [
              6.06452,
              45.88281
            ],
            [
              6.06656,
              45.88445
            ],
            [
              6.06659,
              45.88576
            ],
            [
              6.07115,
              45.88638
            ],
            [
              6.07361,
              45.88746
            ],
            [
              6.07681,
              45.89006
            ],
            [
              6.07836,
              45.88996
            ],
            [
              6.08108,
              45.89118
            ],
            [
              6.08079,
              45.89362
            ],
            [
              6.08368,
              45.89524
            ],
            [
              6.08319,
              45.89656
            ],
            [
              6.08402,
              45.89819
            ],
            [
              6.0849,
              45.90167
            ],
            [
              6.08455,
              45.90219
            ]
          ]
        ]
      },
      "properties": {
        "code": "74010",
        "nom": "Annecy",
        "fill": "#C1D3FF",
        "fill-opacity": 0.5,
        "stroke-dasharray": 0
      }
    }
  ]
}
